{
	"name": "andrij200390/bets_bb",
	"version": "2.0.7",
	"download_url": "https://bitbucket.org/andrij200390/bets_bb/",

	"homepage": "https://bitbucket.org/andrij200390/bets_bb/",
	
	"author": "Andrew Golovko",
	"author_homepage": "http://andrij200390.96.lt/",

	"sections": {
		"description": "Создание типа записи Букмекер. Для него будет возможность писать рейтинг, добавлять ссылку, валюту, описание, и другое. Имеет свой вывод, заточенный под тему consult press. В плагине имеется возможность вывода топ 3 букмекеров, для етого нужно вставить шорткод [topbets], или вставить виджет ТОП5 букмекеров в нужный сайдбар. Для вывода всех букмекеров используется шорткода [allbets]. Также есть возможность вставки в виде табов (последние и топ букмекеры). Вывод описания тоже сделан через табы. Также добавлен визуальный редактор для описания букмекеров. Добавлены метки для типов записи букмекер. Bitbucket будет синхронизация версии плагина",
		"installation": "git clone https://andrij200390@bitbucket.org/andrij200390/bets_bb.git in your folder"		
	}
}